index
…
bootstrapped_net_data <- bootstraps(
   net_data,
   times = 1000,
   # required to calculate CIs later
   apparent = TRUE
)

res_rc <- bootstrapped_net_data |>
   mutate(boot_fits = map(splits, fit_ipw))

res_rc

# Bootstrap sampling with apparent sample 
# A tibble: 1,001 × 3
   splits             id            boot_fits       
   <list>             <chr>         <list>          
 1 <split [1752/634]> Bootstrap0001 <tibble [2 × 5]>
 2 <split [1752/626]> Bootstrap0002 <tibble [2 × 5]>
 3 <split [1752/633]> Bootstrap0003 <tibble [2 × 5]>
 4 <split [1752/658]> Bootstrap0004 <tibble [2 × 5]>
 5 <split [1752/654]> Bootstrap0005 <tibble [2 × 5]>
 6 <split [1752/625]> Bootstrap0006 <tibble [2 × 5]>
 7 <split [1752/619]> Bootstrap0007 <tibble [2 × 5]>
 8 <split [1752/630]> Bootstrap0008 <tibble [2 × 5]>
 9 <split [1752/615]> Bootstrap0009 <tibble [2 × 5]>
10 <split [1752/635]> Bootstrap0010 <tibble [2 × 5]>
# … with 991 more rows
…
# generate the null distribution
null_dist <-
  gss %>%
  specify(response = hours) %>%
  hypothesize(null = "point", mu = 40) %>%
  generate(reps = 1000, type = "bootstrap") %>%
  calculate(stat = "t")

null_dist

Response: hours (numeric)
Null Hypothesis: point
# A tibble: 1,000 × 2
   replicate   stat
       <int>  <dbl>
 1         1 -2.13 
 2         2 -0.293
 3         3 -0.469
 4         4  1.36 
 5         5 -1.08 
 6         6 -1.12 
 7         7 -0.335
 8         8  0.986
 9         9  0.911
10        10  0.404
# … with 990 more rows
…
# generate the null distribution
null_dist <-
  gss %>%
  specify(finrela ~ sex) %>%
  hypothesize(null = "independence") %>%
  generate(reps = 1000, type = "permute") %>%
  calculate(stat = "Chisq")

null_dist

Response: finrela (factor)
Explanatory: sex (factor)
Null Hypothesis: independence
# A tibble: 1,000 × 2
   replicate  stat
       <int> <dbl>
 1         1  1.95
 2         2  2.92
 3         3  2.32
 4         4  4.60
 5         5  4.30
 6         6  6.43
 7         7  8.58
 8         8  1.83
 9         9  7.87
10        10  6.34
# … with 990 more rows
…
# fit 100 models to resamples of the gss dataset, where 
# the response `hours` is permuted in each.
null_fits <- 
  gss %>%
  specify(hours ~ age + college) %>%
  hypothesize(null = "independence") %>%
  generate(reps = 100, type = "permute") %>%
  fit()

null_fits

# A tibble: 300 × 3
# Groups:   replicate [100]
   replicate term          estimate
       <int> <chr>            <dbl>
 1         1 intercept      38.9   
 2         1 age             0.0517
 3         1 collegedegree   1.02  
 4         2 intercept      40.0   
 5         2 age             0.0302
 6         2 collegedegree   0.382 
 7         3 intercept      44.2   
 8         3 age            -0.0631
 9         3 collegedegree  -0.765 
10         4 intercept      41.8   
# … with 290 more rows
…
res_in

# A tibble: 2,000 × 4
   replicate data                term      estimate
       <dbl> <list>              <chr>        <dbl>
 1         1 <infer [1,752 × 3]> intercept     42.6
 2         1 <infer [1,752 × 3]> netTRUE      -12.2
 3         2 <infer [1,752 × 3]> intercept     42.4
 4         2 <infer [1,752 × 3]> netTRUE      -12.3
 5         3 <infer [1,752 × 3]> intercept     43.0
 6         3 <infer [1,752 × 3]> netTRUE      -12.0
 7         4 <infer [1,752 × 3]> intercept     42.9
 8         4 <infer [1,752 × 3]> netTRUE      -12.8
 9         5 <infer [1,752 × 3]> intercept     42.5
10         5 <infer [1,752 × 3]> netTRUE      -12.8
# … with 1,990 more rows
…
